Aplicação do PSF com validação cruzada a séries de vazão naturalizada
…
## 36.738 sec elapsed

# 36.773 sec elapsed
preds_test

## # A tibble: 870 x 9
##    code_stn .id    training testing qnat_prev model cvparams preds_med preds_mod
##       <dbl> <chr>  <list>   <list>  <list>    <lis> <list>   <list>    <list>   
##  1        6 Slice… <tibble… <tibbl… <dbl [12… <psf> <int [2… <dbl [12… <dbl [12…
##  2        6 Slice… <tibble… <tibbl… <dbl [12… <psf> <int [2… <dbl [12… <dbl [12…
##  3        6 Slice… <tibble… <tibbl… <dbl [12… <psf> <int [2… <dbl [12… <dbl [12…
##  4        6 Slice… <tibble… <tibbl… <dbl [12… <psf> <int [2… <dbl [12… <dbl [12…
##  5        6 Slice… <tibble… <tibbl… <dbl [12… <psf> <int [2… <dbl [12… <dbl [12…
##  6        6 Slice… <tibble… <tibbl… <dbl [12… <psf> <int [2… <dbl [12… <dbl [12…
##  7        6 Slice… <tibble… <tibbl… <dbl [12… <psf> <int [2… <dbl [12… <dbl [12…
##  8        6 Slice… <tibble… <tibbl… <dbl [12… <psf> <int [2… <dbl [12… <dbl [12…
##  9        6 Slice… <tibble… <tibbl… <dbl [12… <psf> <int [2… <dbl [12… <dbl [12…
## 10        6 Slice… <tibble… <tibbl… <dbl [12… <psf> <int [2… <dbl [12… <dbl [12…
## # … with 860 more rows
…
